Level 1/Image Display Control I/LCD_CTRL.vcd
$date
	Tue Feb 04 16:19:51 2020
$end
$version
	ModelSim Version 10.1c
$end
$timescale
	10ps
$end
$scope module test $end
$var parameter 32 ! IMAGE_N_PAT $end
$var parameter 32 " CMD_N_PAT $end
$var parameter 32 # OUT_LENGTH $end
$var parameter 32 $ t_reset $end
$var reg 1 % clk $end
$var reg 1 & reset $end
$var reg 8 ' datain [7:0] $end
$var reg 3 ( cmd [2:0] $end
$var reg 1 ) cmd_valid $end
$var wire 1 * dataout [7] $end
$var wire 1 + dataout [6] $end
$var wire 1 , dataout [5] $end
$var wire 1 - dataout [4] $end
$var wire 1 . dataout [3] $end
$var wire 1 / dataout [2] $end
$var wire 1 0 dataout [1] $end
$var wire 1 1 dataout [0] $end
$var wire 1 2 output_valid $end
$var wire 1 3 busy $end
$var reg 8 4 out_temp [7:0] $end
$var reg 1 5 stop $end
$var integer 32 6 i $end
$var integer 32 7 j $end
$var integer 32 8 out_f $end
$var integer 32 9 err $end
$var integer 32 : pattern_num $end
$var reg 1 ; over $end
$scope module top $end
$var wire 1 < clk $end
$var wire 1 = reset $end
$var wire 1 > datain [7] $end
$var wire 1 ? datain [6] $end
$var wire 1 @ datain [5] $end
$var wire 1 A datain [4] $end
$var wire 1 B datain [3] $end
$var wire 1 C datain [2] $end
$var wire 1 D datain [1] $end
$var wire 1 E datain [0] $end
$var wire 1 F cmd [2] $end
$var wire 1 G cmd [1] $end
$var wire 1 H cmd [0] $end
$var wire 1 I cmd_valid $end
$var reg 8 J dataout [7:0] $end
$var reg 1 K output_valid $end
$var reg 1 L busy $end
$var reg 6 M input_count [5:0] $end
$var reg 4 N output_count [3:0] $end
$var reg 3 O origin_x [2:0] $end
$var reg 3 P origin_y [2:0] $end
$var reg 32 Q clk_count [31:0] $end
$var integer 32 R i $end
$scope task start_input_task $end
$upscope $end
$scope task start_output_task $end
$upscope $end
$upscope $end
$upscope $end
$enddefinitions $end
#0
$dumpvars
0%
0&
bx '
bx (
0)
bx 4
05
0;
bx J
xK
xL
bx M
bx N
bx O
bx P
bx Q
b100100 !
b11110 "
b100001110 #
b11001000 $
bx 6
bx 7
b10 8
b0 9
b0 :
bx R
x1
x0
x/
x.
x-
x,
x+
x*
x2
x3
0I
xH
xG
xF
xE
xD
xC
xB
xA
x@
x?
x>
0=
0<
$end
#5000
1%
1<
b1110 4
#10000
0%
0<
1&
1=
b0 R
b1 R
b10 R
b11 R
b100 R
b101 R
b110 R
b111 R
b1000 R
b1001 R
b1010 R
b1011 R
b1100 R
b1101 R
b1110 R
b1111 R
b10000 R
b10001 R
b10010 R
b10011 R
b10100 R
b10101 R
b10110 R
b10111 R
b11000 R
b11001 R
b11010 R
b11011 R
b11100 R
b11101 R
b11110 R
b11111 R
b100000 R
b100001 R
b100010 R
b100011 R
b100100 R
b0 J
0K
0L
b100100 M
b1001 N
b10 O
b10 P
b1 Q
01
00
0/
0.
0-
0,
0+
0*
02
03
#15000
1%
1<
b0 R
b1 R
b10 R
b11 R
b100 R
b101 R
b110 R
b111 R
b1000 R
b1001 R
b1010 R
b1011 R
b1100 R
b1101 R
b1110 R
b1111 R
b10000 R
b10001 R
b10010 R
b10011 R
b10100 R
b10101 R
b10110 R
b10111 R
b11000 R
b11001 R
b11010 R
b11011 R
b11100 R
b11101 R
b11110 R
b11111 R
b100000 R
b100001 R
b100010 R
b100011 R
b100100 R
#20000
0%
0<
#25000
1%
1<
b0 R
b1 R
b10 R
b11 R
b100 R
b101 R
b110 R
b111 R
b1000 R
b1001 R
b1010 R
b1011 R
b1100 R
b1101 R
b1110 R
b1111 R
b10000 R
b10001 R
b10010 R
b10011 R
b10100 R
b10101 R
b10110 R
b10111 R
b11000 R
b11001 R
b11010 R
b11011 R
b11100 R
b11101 R
b11110 R
b11111 R
b100000 R
b100001 R
b100010 R
b100011 R
b100100 R
#30000
0&
0%
0=
0<
b0 6
b1 (
1)
b0 7
1H
0G
0F
1I
#35000
1%
1<
1L
b0 M
13
#40000
0%
0<
b0 '
bz (
0)
b1 7
zH
zG
zF
0E
0D
0C
0B
0A
0@
0?
0>
0I
#45000
1%
1<
b1 M
#50000
0%
0<
b1 '
b10 7
1E
#55000
1%
1<
b10 M
#60000
0%
0<
b10 '
b11 7
0E
1D
#65000
1%
1<
b11 M
#70000
0%
0<
b11 '
b100 7
1E
#75000
1%
1<
b100 M
#80000
0%
0<
b100 '
b101 7
0E
0D
1C
#85000
1%
1<
b101 M
#90000
0%
0<
b101 '
b110 7
1E
#95000
1%
1<
b110 M
#100000
0%
0<
b110 '
b111 7
0E
1D
#105000
1%
1<
b111 M
#110000
0%
0<
b111 '
b1000 7
1E
#115000
1%
1<
b1000 M
#120000
0%
0<
b1000 '
b1001 7
0E
0D
0C
1B
#125000
1%
1<
b1001 M
#130000
0%
0<
b1001 '
b1010 7
1E
#135000
1%
1<
b1010 M
#140000
0%
0<
b1010 '
b1011 7
0E
1D
#145000
1%
1<
b1011 M
#150000
0%
0<
b1011 '
b1100 7
1E
#155000
1%
1<
b1100 M
#160000
0%
0<
b1100 '
b1101 7
0E
0D
1C
#165000
1%
1<
b1101 M
#170000
0%
0<
b1101 '
b1110 7
1E
#175000
1%
1<
b1110 M
#180000
0%
0<
b1110 '
b1111 7
0E
1D
#185000
1%
1<
b1111 M
#190000
0%
0<
b1111 '
b10000 7
1E
#195000
1%
1<
b10000 M
#200000
0%
0<
b10000 '
b10001 7
0E
0D
0C
0B
1A
#205000
1%
1<
b10001 M
#210000
0%
0<
b10001 '
b10010 7
1E
#215000
1%
1<
b10010 M
#220000
0%
0<
b10010 '
b10011 7
0E
1D
#225000
1%
1<
b10011 M
#230000
0%
0<
b10011 '
b10100 7
1E
#235000
1%
1<
b10100 M
#240000
0%
0<
b10100 '
b10101 7
0E
0D
1C
#245000
1%
1<
b10101 M
#250000
0%
0<
b10101 '
b10110 7
1E
#255000
1%
1<
b10110 M
#260000
0%
0<
b10110 '
b10111 7
0E
1D
#265000
1%
1<
b10111 M
#270000
0%
0<
b10111 '
b11000 7
1E
#275000
1%
1<
b11000 M
#280000
0%
0<
b11000 '
b11001 7
0E
0D
0C
1B
#285000
1%
1<
b11001 M
#290000
0%
0<
b11001 '
b11010 7
1E
#295000
1%
1<
b11010 M
#300000
0%
0<
b11010 '
b11011 7
0E
1D
#305000
1%
1<
b11011 M
#310000
0%
0<
b11011 '
b11100 7
1E
#315000
1%
1<
b11100 M
#320000
0%
0<
b11100 '
b11101 7
0E
0D
1C
#325000
1%
1<
b11101 M
#330000
0%
0<
b11101 '
b11110 7
1E
#335000
1%
1<
b11110 M
#340000
0%
0<
b11110 '
b11111 7
0E
1D
#345000
1%
1<
b11111 M
#350000
0%
0<
b11111 '
b100000 7
1E
#355000
1%
1<
b100000 M
#360000
0%
0<
b100000 '
b100001 7
0E
0D
0C
0B
0A
1@
#365000
1%
1<
b100001 M
#370000
0%
0<
b100001 '
b100010 7
1E
#375000
1%
1<
b100010 M
#380000
0%
0<
b100010 '
b100011 7
0E
1D
#385000
1%
1<
b100011 M
#390000
0%
0<
b100011 '
b100100 7
1E
#395000
1%
1<
b100100 M
#400000
0%
0<
bx '
b100101 7
b1 6
bz '
zE
zD
zC
zB
zA
z@
z?
z>
#405000
1%
1<
b1110 J
1K
b1000 N
10
1/
1.
12
#410000
0%
0<
#415000
1%
1<
b1 :
b1111 J
b111 N
11
#420000
0%
0<
#425000
1%
1<
b1111 4
b10 :
b10000 J
b110 N
01
00
0/
0.
1-
#430000
0%
0<
#435000
1%
1<
b10000 4
b11 :
b10100 J
b101 N
1/
#440000
0%
0<
#445000
1%
1<
b10100 4
b100 :
b10101 J
b100 N
11
#450000
0%
0<
#455000
1%
1<
b10101 4
b101 :
b10110 J
b11 N
01
10
#460000
0%
0<
#465000
1%
1<
b10110 4
b110 :
b11010 J
b10 N
0/
1.
#470000
0%
0<
#475000
1%
1<
b11010 4
b111 :
b11011 J
b1 N
11
#480000
0%
0<
#485000
1%
1<
b11011 4
b1000 :
b11100 J
b0 N
01
00
1/
#490000
0%
0<
#495000
1%
1<
b11100 4
b1001 :
b1111 N
0K
0L
02
03
#500000
0%
0<
b10 (
1)
0H
1G
0F
1I
#505000
1%
1<
b11 O
b1111 4
1L
b1001 N
13
#510000
0%
0<
0)
b10 6
bz (
0I
zH
zG
zF
#515000
1%
1<
b1111 J
1K
b1000 N
11
10
0-
12
#520000
0%
0<
#525000
1%
1<
b1010 :
b10000 J
b111 N
01
00
0/
0.
1-
#530000
0%
0<
#535000
1%
1<
b10000 4
b1011 :
b10001 J
b110 N
11
#540000
0%
0<
#545000
1%
1<
b10001 4
b1100 :
b10101 J
b101 N
1/
#550000
0%
0<
#555000
1%
1<
b10101 4
b1101 :
b10110 J
b100 N
01
10
#560000
0%
0<
#565000
1%
1<
b10110 4
b1110 :
b10111 J
b11 N
11
#570000
0%
0<
#575000
1%
1<
b10111 4
b1111 :
b11011 J
b10 N
0/
1.
#580000
0%
0<
#585000
1%
1<
b11011 4
b10000 :
b11100 J
b1 N
01
00
1/
#590000
0%
0<
#595000
1%
1<
b11100 4
b10001 :
b11101 J
b0 N
11
#600000
0%
0<
#605000
1%
1<
b11101 4
b10010 :
b1111 N
0K
0L
02
03
#610000
0%
0<
b101 (
1)
1H
0G
1F
1I
#615000
1%
1<
b11 P
b10101 4
1L
b1001 N
13
#620000
0%
0<
0)
b11 6
bz (
0I
zH
zG
zF
#625000
1%
1<
b10101 J
1K
b1000 N
0.
12
#630000
0%
0<
#635000
1%
1<
b10011 :
b10110 J
b111 N
01
10
#640000
0%
0<
#645000
1%
1<
b10110 4
b10100 :
b10111 J
b110 N
11
#650000
0%
0<
#655000
1%
1<
b10111 4
b10101 :
b11011 J
b101 N
0/
1.
#660000
0%
0<
#665000
1%
1<
b11011 4
b10110 :
b11100 J
b100 N
01
00
1/
#670000
0%
0<
#675000
1%
1<
b11100 4
b10111 :
b11101 J
b11 N
11
#680000
0%
0<
#685000
1%
1<
b11101 4
b11000 :
b100001 J
b10 N
0/
0.
0-
1,
#690000
0%
0<
#695000
1%
1<
b100001 4
b11001 :
b100010 J
b1 N
01
10
#700000
0%
0<
#705000
1%
1<
b100010 4
b11010 :
b100011 J
b0 N
11
#710000
0%
0<
#715000
1%
1<
b100011 4
b11011 :
b1111 N
0K
0L
02
03
#720000
0%
0<
b11 (
1)
1H
1G
0F
1I
#725000
1%
1<
b10 O
b10100 4
1L
b1001 N
13
#730000
0%
0<
0)
b100 6
bz (
0I
zH
zG
zF
#735000
1%
1<
b10100 J
1K
b1000 N
01
00
1/
1-
0,
12
#740000
0%
0<
#745000
1%
1<
b11100 :
b10101 J
b111 N
11
#750000
0%
0<
#755000
1%
1<
b10101 4
b11101 :
b10110 J
b110 N
01
10
#760000
0%
0<
#765000
1%
1<
b10110 4
b11110 :
b11010 J
b101 N
0/
1.
#770000
0%
0<
#775000
1%
1<
b11010 4
b11111 :
b11011 J
b100 N
11
#780000
0%
0<
#785000
1%
1<
b11011 4
b100000 :
b11100 J
b11 N
01
00
1/
#790000
0%
0<
#795000
1%
1<
b11100 4
b100001 :
b100000 J
b10 N
0/
0.
0-
1,
#800000
0%
0<
#805000
1%
1<
b100000 4
b100010 :
b100001 J
b1 N
11
#810000
0%
0<
#815000
1%
1<
b100001 4
b100011 :
b100010 J
b0 N
01
10
#820000
0%
0<
#825000
1%
1<
b100010 4
b100100 :
b1111 N
0K
0L
02
03
#830000
0%
0<
b100 (
1)
0H
0G
1F
1I
#835000
1%
1<
b10 P
b1110 4
1L
b1001 N
13
#840000
0%
0<
0)
b101 6
bz (
0I
zH
zG
zF
#845000
1%
1<
b1110 J
1K
b1000 N
1/
1.
0,
12
#850000
0%
0<
#855000
1%
1<
b100101 :
b1111 J
b111 N
11
#860000
0%
0<
#865000
1%
1<
b1111 4
b100110 :
b10000 J
b110 N
01
00
0/
0.
1-
#870000
0%
0<
#875000
1%
1<
b10000 4
b100111 :
b10100 J
b101 N
1/
#880000
0%
0<
#885000
1%
1<
b10100 4
b101000 :
b10101 J
b100 N
11
#890000
0%
0<
#895000
1%
1<
b10101 4
b101001 :
b10110 J
b11 N
01
10
#900000
0%
0<
#905000
1%
1<
b10110 4
b101010 :
b11010 J
b10 N
0/
1.
#910000
0%
0<
#915000
1%
1<
b11010 4
b101011 :
b11011 J
b1 N
11
#920000
0%
0<
#925000
1%
1<
b11011 4
b101100 :
b11100 J
b0 N
01
00
1/
#930000
0%
0<
#935000
1%
1<
b11100 4
b101101 :
b1111 N
0K
0L
02
03
#940000
0%
0<
b0 (
1)
0H
0G
0F
1I
#945000
1%
1<
b1110 4
1L
b1001 N
13
#950000
0%
0<
0)
b110 6
bz (
0I
zH
zG
zF
#955000
1%
1<
b1110 J
1K
b1000 N
10
0-
12
#960000
0%
0<
#965000
1%
1<
b101110 :
b1111 J
b111 N
11
#970000
0%
0<
#975000
1%
1<
b1111 4
b101111 :
b10000 J
b110 N
01
00
0/
0.
1-
#980000
0%
0<
#985000
1%
1<
b10000 4
b110000 :
b10100 J
b101 N
1/
#990000
0%
0<
#995000
1%
1<
b10100 4
b110001 :
b10101 J
b100 N
11
#1000000
0%
0<
#1005000
1%
1<
b10101 4
b110010 :
b10110 J
b11 N
01
10
#1010000
0%
0<
#1015000
1%
1<
b10110 4
b110011 :
b11010 J
b10 N
0/
1.
#1020000
0%
0<
#1025000
1%
1<
b11010 4
b110100 :
b11011 J
b1 N
11
#1030000
0%
0<
#1035000
1%
1<
b11011 4
b110101 :
b11100 J
b0 N
01
00
1/
#1040000
0%
0<
#1045000
1%
1<
b11100 4
b110110 :
b1111 N
0K
0L
02
03
#1050000
0%
0<
b1 (
1)
b0 7
1H
0G
0F
1I
#1055000
1%
1<
b1110 4
1L
b0 M
b1001 N
13
#1060000
0%
0<
b0 '
bz (
0)
b1 7
zH
zG
zF
0E
0D
0C
0B
0A
0@
0?
0>
0I
#1065000
1%
1<
b1 M
#1070000
0%
0<
b1 '
b10 7
1E
#1075000
1%
1<
b10 M
#1080000
0%
0<
b10 '
b11 7
0E
1D
#1085000
1%
1<
b11 M
#1090000
0%
0<
b11 '
b100 7
1E
#1095000
1%
1<
b100 M
#1100000
0%
0<
b100 '
b101 7
0E
0D
1C
#1105000
1%
1<
b101 M
#1110000
0%
0<
b101 '
b110 7
1E
#1115000
1%
1<
b110 M
#1120000
0%
0<
b110 '
b111 7
0E
1D
#1125000
1%
1<
b111 M
#1130000
0%
0<
b111 '
b1000 7
1E
#1135000
1%
1<
b1000 M
#1140000
0%
0<
b1000 '
b1001 7
0E
0D
0C
1B
#1145000
1%
1<
b1001 M
#1150000
0%
0<
b1001 '
b1010 7
1E
#1155000
1%
1<
b1010 M
#1160000
0%
0<
b1010 '
b1011 7
0E
1D
#1165000
1%
1<
b1011 M
#1170000
0%
0<
b1011 '
b1100 7
1E
#1175000
1%
1<
b1100 M
#1180000
0%
0<
b1100 '
b1101 7
0E
0D
1C
#1185000
1%
1<
b1101 M
#1190000
0%
0<
b1101 '
b1110 7
1E
#1195000
1%
1<
b1110 M
#1200000
0%
0<
b1110 '
b1111 7
0E
1D
#1205000
1%
1<
b1111 M
#1210000
0%
0<
b1111 '
b10000 7
1E
#1215000
1%
1<
b10000 M
#1220000
0%
0<
b10000 '
b10001 7
0E
0D
0C
0B
1A
#1225000
1%
1<
b10001 M
#1230000
0%
0<
b10001 '
b10010 7
1E
#1235000
1%
1<
b10010 M
#1240000
0%
0<
b10010 '
b10011 7
0E
1D
#1245000
1%
1<
b10011 M
#1250000
0%
0<
b10011 '
b10100 7
1E
#1255000
1%
1<
b10100 M
#1260000
0%
0<
b10100 '
b10101 7
0E
0D
1C
#1265000
1%
1<
b10101 M
#1270000
0%
0<
b10101 '
b10110 7
1E
#1275000
1%
1<
b10110 M
#1280000
0%
0<
b10110 '
b10111 7
0E
1D
#1285000
1%
1<
b10111 M
#1290000
0%
0<
b10111 '
b11000 7
1E
#1295000
1%
1<
b11000 M
#1300000
0%
0<
b11000 '
b11001 7
0E
0D
0C
1B
#1305000
1%
1<
b11001 M
#1310000
0%
0<
b11001 '
b11010 7
1E
#1315000
1%
1<
b11010 M
#1320000
0%
0<
b11010 '
b11011 7
0E
1D
#1325000
1%
1<
b11011 M
#1330000
0%
0<
b11011 '
b11100 7
1E
#1335000
1%
1<
b11100 M
#1340000
0%
0<
b11100 '
b11101 7
0E
0D
1C
#1345000
1%
1<
b11101 M
#1350000
0%
0<
b11101 '
b11110 7
1E
#1355000
1%
1<
b11110 M
#1360000
0%
0<
b11110 '
b11111 7
0E
1D
#1365000
1%
1<
b11111 M
#1370000
0%
0<
b11111 '
b100000 7
1E
#1375000
1%
1<
b100000 M
#1380000
0%
0<
b100000 '
b100001 7
0E
0D
0C
0B
0A
1@
#1385000
1%
1<
b100001 M
#1390000
0%
0<
b100001 '
b100010 7
1E
#1395000
1%
1<
b100010 M
#1400000
0%
0<
b100010 '
b100011 7
0E
1D
#1405000
1%
1<
b100011 M
#1410000
0%
0<
b100011 '
b100100 7
1E
#1415000
1%
1<
b100100 M
#1420000
0%
0<
bx '
b100101 7
b111 6
bz '
zE
zD
zC
zB
zA
z@
z?
z>
#1425000
1%
1<
b1110 J
1K
b1000 N
10
0-
12
#1430000
0%
0<
#1435000
1%
1<
b110111 :
b1111 J
b111 N
11
#1440000
0%
0<
#1445000
1%
1<
b1111 4
b111000 :
b10000 J
b110 N
01
00
0/
0.
1-
#1450000
0%
0<
#1455000
1%
1<
b10000 4
b111001 :
b10100 J
b101 N
1/
#1460000
0%
0<
#1465000
1%
1<
b10100 4
b111010 :
b10101 J
b100 N
11
#1470000
0%
0<
#1475000
1%
1<
b10101 4
b111011 :
b10110 J
b11 N
01
10
#1480000
0%
0<
#1485000
1%
1<
b10110 4
b111100 :
b11010 J
b10 N
0/
1.
#1490000
0%
0<
#1495000
1%
1<
b11010 4
b111101 :
b11011 J
b1 N
11
#1500000
0%
0<
#1505000
1%
1<
b11011 4
b111110 :
b11100 J
b0 N
01
00
1/
#1510000
0%
0<
#1515000
1%
1<
b11100 4
b111111 :
b1111 N
0K
0L
02
03
#1520000
0%
0<
b11 (
1)
1H
1G
0F
1I
#1525000
1%
1<
b1 O
b1101 4
1L
b1001 N
13
#1530000
0%
0<
0)
b1000 6
bz (
0I
zH
zG
zF
#1535000
1%
1<
b1101 J
1K
b1000 N
11
0-
12
#1540000
0%
0<
#1545000
1%
1<
b1000000 :
b1110 J
b111 N
01
10
#1550000
0%
0<
#1555000
1%
1<
b1110 4
b1000001 :
b1111 J
b110 N
11
#1560000
0%
0<
#1565000
1%
1<
b1111 4
b1000010 :
b10011 J
b101 N
0/
0.
1-
#1570000
0%
0<
#1575000
1%
1<
b10011 4
b1000011 :
b10100 J
b100 N
01
00
1/
#1580000
0%
0<
#1585000
1%
1<
b10100 4
b1000100 :
b10101 J
b11 N
11
#1590000
0%
0<
#1595000
1%
1<
b10101 4
b1000101 :
b11001 J
b10 N
0/
1.
#1600000
0%
0<
#1605000
1%
1<
b11001 4
b1000110 :
b11010 J
b1 N
01
10
#1610000
0%
0<
#1615000
1%
1<
b11010 4
b1000111 :
b11011 J
b0 N
11
#1620000
0%
0<
#1625000
1%
1<
b11011 4
b1001000 :
b1111 N
0K
0L
02
03
#1630000
0%
0<
b101 (
1)
1H
0G
1F
1I
#1635000
1%
1<
b11 P
b10011 4
1L
b1001 N
13
#1640000
0%
0<
0)
b1001 6
bz (
0I
zH
zG
zF
#1645000
1%
1<
b10011 J
1K
b1000 N
0.
12
#1650000
0%
0<
#1655000
1%
1<
b1001001 :
b10100 J
b111 N
01
00
1/
#1660000
0%
0<
#1665000
1%
1<
b10100 4
b1001010 :
b10101 J
b110 N
11
#1670000
0%
0<
#1675000
1%
1<
b10101 4
b1001011 :
b11001 J
b101 N
0/
1.
#1680000
0%
0<
#1685000
1%
1<
b11001 4
b1001100 :
b11010 J
b100 N
01
10
#1690000
0%
0<
#1695000
1%
1<
b11010 4
b1001101 :
b11011 J
b11 N
11
#1700000
0%
0<
#1705000
1%
1<
b11011 4
b1001110 :
b11111 J
b10 N
1/
#1710000
0%
0<
#1715000
1%
1<
b11111 4
b1001111 :
b100000 J
b1 N
01
00
0/
0.
0-
1,
#1720000
0%
0<
#1725000
1%
1<
b100000 4
b1010000 :
b100001 J
b0 N
11
#1730000
0%
0<
#1735000
1%
1<
b100001 4
b1010001 :
b1111 N
0K
0L
02
03
#1740000
0%
0<
b101 (
1)
1H
0G
1F
1I
#1745000
1%
1<
b10011 4
1L
b1001 N
13
#1750000
0%
0<
0)
b1010 6
bz (
0I
zH
zG
zF
#1755000
1%
1<
b10011 J
1K
b1000 N
10
1-
0,
12
#1760000
0%
0<
#1765000
1%
1<
b1010010 :
b10100 J
b111 N
01
00
1/
#1770000
0%
0<
#1775000
1%
1<
b10100 4
b1010011 :
b10101 J
b110 N
11
#1780000
0%
0<
#1785000
1%
1<
b10101 4
b1010100 :
b11001 J
b101 N
0/
1.
#1790000
0%
0<
#1795000
1%
1<
b11001 4
b1010101 :
b11010 J
b100 N
01
10
#1800000
0%
0<
#1805000
1%
1<
b11010 4
b1010110 :
b11011 J
b11 N
11
#1810000
0%
0<
#1815000
1%
1<
b11011 4
b1010111 :
b11111 J
b10 N
1/
#1820000
0%
0<
#1825000
1%
1<
b11111 4
b1011000 :
b100000 J
b1 N
01
00
0/
0.
0-
1,
#1830000
0%
0<
#1835000
1%
1<
b100000 4
b1011001 :
b100001 J
b0 N
11
#1840000
0%
0<
#1845000
1%
1<
b100001 4
b1011010 :
b1111 N
0K
0L
02
03
#1850000
0%
0<
b11 (
1)
1H
1G
0F
1I
#1855000
1%
1<
b0 O
b10010 4
1L
b1001 N
13
#1860000
0%
0<
0)
b1011 6
bz (
0I
zH
zG
zF
#1865000
1%
1<
b10010 J
1K
b1000 N
01
10
1-
0,
12
#1870000
0%
0<
#1875000
1%
1<
b1011011 :
b10011 J
b111 N
11
#1880000
0%
0<
#1885000
1%
1<
b10011 4
b1011100 :
b10100 J
b110 N
01
00
1/
#1890000
0%
0<
#1895000
1%
1<
b10100 4
b1011101 :
b11000 J
b101 N
0/
1.
#1900000
0%
0<
#1905000
1%
1<
b11000 4
b1011110 :
b11001 J
b100 N
11
#1910000
0%
0<
#1915000
1%
1<
b11001 4
b1011111 :
b11010 J
b11 N
01
10
#1920000
0%
0<
#1925000
1%
1<
b11010 4
b1100000 :
b11110 J
b10 N
1/
#1930000
0%
0<
#1935000
1%
1<
b11110 4
b1100001 :
b11111 J
b1 N
11
#1940000
0%
0<
#1945000
1%
1<
b11111 4
b1100010 :
b100000 J
b0 N
01
00
0/
0.
0-
1,
#1950000
0%
0<
#1955000
1%
1<
b100000 4
b1100011 :
b1111 N
0K
0L
02
03
#1960000
0%
0<
b11 (
1)
1H
1G
0F
1I
#1965000
1%
1<
b10010 4
1L
b1001 N
13
#1970000
0%
0<
0)
b1100 6
bz (
0I
zH
zG
zF
#1975000
1%
1<
b10010 J
1K
b1000 N
10
1-
0,
12
#1980000
0%
0<
#1985000
1%
1<
b1100100 :
b10011 J
b111 N
11
#1990000
0%
0<
#1995000
1%
1<
b10011 4
b1100101 :
b10100 J
b110 N
01
00
1/
#2000000
0%
0<
#2005000
1%
1<
b10100 4
b1100110 :
b11000 J
b101 N
0/
1.
#2010000
0%
0<
#2015000
1%
1<
b11000 4
b1100111 :
b11001 J
b100 N
11
#2020000
0%
0<
#2025000
1%
1<
b11001 4
b1101000 :
b11010 J
b11 N
01
10
#2030000
0%
0<
#2035000
1%
1<
b11010 4
b1101001 :
b11110 J
b10 N
1/
#2040000
0%
0<
#2045000
1%
1<
b11110 4
b1101010 :
b11111 J
b1 N
11
#2050000
0%
0<
#2055000
1%
1<
b11111 4
b1101011 :
b100000 J
b0 N
01
00
0/
0.
0-
1,
#2060000
0%
0<
#2065000
1%
1<
b100000 4
b1101100 :
b1111 N
0K
0L
02
03
#2070000
0%
0<
b100 (
1)
0H
0G
1F
1I
#2075000
1%
1<
b10 P
b1100 4
1L
b1001 N
13
#2080000
0%
0<
0)
b1101 6
bz (
0I
zH
zG
zF
#2085000
1%
1<
b1100 J
1K
b1000 N
1/
1.
0,
12
#2090000
0%
0<
#2095000
1%
1<
b1101101 :
b1101 J
b111 N
11
#2100000
0%
0<
#2105000
1%
1<
b1101 4
b1101110 :
b1110 J
b110 N
01
10
#2110000
0%
0<
#2115000
1%
1<
b1110 4
b1101111 :
b10010 J
b101 N
0/
0.
1-
#2120000
0%
0<
#2125000
1%
1<
b10010 4
b1110000 :
b10011 J
b100 N
11
#2130000
0%
0<
#2135000
1%
1<
b10011 4
b1110001 :
b10100 J
b11 N
01
00
1/
#2140000
0%
0<
#2145000
1%
1<
b10100 4
b1110010 :
b11000 J
b10 N
0/
1.
#2150000
0%
0<
#2155000
1%
1<
b11000 4
b1110011 :
b11001 J
b1 N
11
#2160000
0%
0<
#2165000
1%
1<
b11001 4
b1110100 :
b11010 J
b0 N
01
10
#2170000
0%
0<
#2175000
1%
1<
b11010 4
b1110101 :
b1111 N
0K
0L
02
03
#2180000
0%
0<
b100 (
1)
0H
0G
1F
1I
#2185000
1%
1<
b1 P
b110 4
1L
b1001 N
13
#2190000
0%
0<
0)
b1110 6
bz (
0I
zH
zG
zF
#2195000
1%
1<
b110 J
1K
b1000 N
1/
0.
0-
12
#2200000
0%
0<
#2205000
1%
1<
b1110110 :
b111 J
b111 N
11
#2210000
0%
0<
#2215000
1%
1<
b111 4
b1110111 :
b1000 J
b110 N
01
00
0/
1.
#2220000
0%
0<
#2225000
1%
1<
b1000 4
b1111000 :
b1100 J
b101 N
1/
#2230000
0%
0<
#2235000
1%
1<
b1100 4
b1111001 :
b1101 J
b100 N
11
#2240000
0%
0<
#2245000
1%
1<
b1101 4
b1111010 :
b1110 J
b11 N
01
10
#2250000
0%
0<
#2255000
1%
1<
b1110 4
b1111011 :
b10010 J
b10 N
0/
0.
1-
#2260000
0%
0<
#2265000
1%
1<
b10010 4
b1111100 :
b10011 J
b1 N
11
#2270000
0%
0<
#2275000
1%
1<
b10011 4
b1111101 :
b10100 J
b0 N
01
00
1/
#2280000
0%
0<
#2285000
1%
1<
b10100 4
b1111110 :
b1111 N
0K
0L
02
03
#2290000
0%
0<
b11 (
1)
1H
1G
0F
1I
#2295000
1%
1<
b110 4
1L
b1001 N
13
#2300000
0%
0<
0)
b1111 6
bz (
0I
zH
zG
zF
#2305000
1%
1<
b110 J
1K
b1000 N
10
0-
12
#2310000
0%
0<
#2315000
1%
1<
b1111111 :
b111 J
b111 N
11
#2320000
0%
0<
#2325000
1%
1<
b111 4
b10000000 :
b1000 J
b110 N
01
00
0/
1.
#2330000
0%
0<
#2335000
1%
1<
b1000 4
b10000001 :
b1100 J
b101 N
1/
#2340000
0%
0<
#2345000
1%
1<
b1100 4
b10000010 :
b1101 J
b100 N
11
#2350000
0%
0<
#2355000
1%
1<
b1101 4
b10000011 :
b1110 J
b11 N
01
10
#2360000
0%
0<
#2365000
1%
1<
b1110 4
b10000100 :
b10010 J
b10 N
0/
0.
1-
#2370000
0%
0<
#2375000
1%
1<
b10010 4
b10000101 :
b10011 J
b1 N
11
#2380000
0%
0<
#2385000
1%
1<
b10011 4
b10000110 :
b10100 J
b0 N
01
00
1/
#2390000
0%
0<
#2395000
1%
1<
b10100 4
b10000111 :
b1111 N
0K
0L
02
03
#2400000
0%
0<
b100 (
1)
0H
0G
1F
1I
#2405000
1%
1<
b0 P
b0 4
1L
b1001 N
13
#2410000
0%
0<
0)
b10000 6
bz (
0I
zH
zG
zF
#2415000
1%
1<
b0 J
1K
b1000 N
0/
0-
12
#2420000
0%
0<
#2425000
1%
1<
b10001000 :
b1 J
b111 N
11
#2430000
0%
0<
#2435000
1%
1<
b1 4
b10001001 :
b10 J
b110 N
01
10
#2440000
0%
0<
#2445000
1%
1<
b10 4
b10001010 :
b110 J
b101 N
1/
#2450000
0%
0<
#2455000
1%
1<
b110 4
b10001011 :
b111 J
b100 N
11
#2460000
0%
0<
#2465000
1%
1<
b111 4
b10001100 :
b1000 J
b11 N
01
00
0/
1.
#2470000
0%
0<
#2475000
1%
1<
b1000 4
b10001101 :
b1100 J
b10 N
1/
#2480000
0%
0<
#2485000
1%
1<
b1100 4
b10001110 :
b1101 J
b1 N
11
#2490000
0%
0<
#2495000
1%
1<
b1101 4
b10001111 :
b1110 J
b0 N
01
10
#2500000
0%
0<
#2505000
1%
1<
b1110 4
b10010000 :
b1111 N
0K
0L
02
03
#2510000
0%
0<
b10 (
1)
0H
1G
0F
1I
#2515000
1%
1<
b1 O
b1 4
1L
b1001 N
13
#2520000
0%
0<
0)
b10001 6
bz (
0I
zH
zG
zF
#2525000
1%
1<
b1 J
1K
b1000 N
11
00
0/
0.
12
#2530000
0%
0<
#2535000
1%
1<
b10010001 :
b10 J
b111 N
01
10
#2540000
0%
0<
#2545000
1%
1<
b10 4
b10010010 :
b11 J
b110 N
11
#2550000
0%
0<
#2555000
1%
1<
b11 4
b10010011 :
b111 J
b101 N
1/
#2560000
0%
0<
#2565000
1%
1<
b111 4
b10010100 :
b1000 J
b100 N
01
00
0/
1.
#2570000
0%
0<
#2575000
1%
1<
b1000 4
b10010101 :
b1001 J
b11 N
11
#2580000
0%
0<
#2585000
1%
1<
b1001 4
b10010110 :
b1101 J
b10 N
1/
#2590000
0%
0<
#2595000
1%
1<
b1101 4
b10010111 :
b1110 J
b1 N
01
10
#2600000
0%
0<
#2605000
1%
1<
b1110 4
b10011000 :
b1111 J
b0 N
11
#2610000
0%
0<
#2615000
1%
1<
b1111 4
b10011001 :
b1111 N
0K
0L
02
03
