Level_2/Triangle_Coordinate_Calculation/dump.vcd
$date
	Wed Feb 12 12:56:19 2020
$end
$version
	ModelSim Version 10.1c
$end
$timescale
	10ps
$end
$scope module test $end
$var parameter 72 ! INPUT_DATA $end
$var parameter 80 " EXPECT_DATA $end
$var parameter 32 # period $end
$var reg 1 $ clk $end
$var reg 1 % reset $end
$var reg 1 & nt $end
$var reg 3 ' xi [2:0] $end
$var reg 3 ( yi [2:0] $end
$var wire 1 ) xo [2] $end
$var wire 1 * xo [1] $end
$var wire 1 + xo [0] $end
$var wire 1 , yo [2] $end
$var wire 1 - yo [1] $end
$var wire 1 . yo [0] $end
$var wire 1 / po $end
$var wire 1 0 busy $end
$var integer 32 1 i $end
$var integer 32 2 j $end
$var integer 32 3 k $end
$var integer 32 4 l $end
$var integer 32 5 out_f $end
$var integer 32 6 err $end
$var integer 32 7 pattern_num $end
$var integer 32 8 total_num $end
$var integer 32 9 total_cycle_num $end
$var integer 32 : a $end
$var integer 32 ; b $end
$var integer 32 < c $end
$var integer 32 = d $end
$var reg 6 > data_tmp_expect [5:0] $end
$var reg 6 ? data_tmp_i1 [5:0] $end
$var reg 6 @ data_tmp_i2 [5:0] $end
$var reg 6 A data_tmp_i3 [5:0] $end
$scope module top $end
$var parameter 2 B Idle $end
$var parameter 2 C Input $end
$var parameter 2 D Output $end
$var wire 1 E clk $end
$var wire 1 F reset $end
$var wire 1 G nt $end
$var wire 1 H xi [2] $end
$var wire 1 I xi [1] $end
$var wire 1 J xi [0] $end
$var wire 1 K yi [2] $end
$var wire 1 L yi [1] $end
$var wire 1 M yi [0] $end
$var reg 1 N busy $end
$var reg 1 O po $end
$var reg 3 P xo [2:0] $end
$var reg 3 Q yo [2:0] $end
$var reg 2 R curr_state [1:0] $end
$var reg 2 S next_state [1:0] $end
$var reg 2 T input_count [1:0] $end
$var reg 3 U curr_x [2:0] $end
$var reg 3 V curr_y [2:0] $end
$var reg 8 W slope [7:0] $end
$var reg 8 X a [7:0] $end
$var reg 8 Y b [7:0] $end
$var integer 32 Z i $end
$upscope $end
$upscope $end
$enddefinitions $end
#0
$dumpvars
1$
0%
0&
bz '
bz (
bx >
bx ?
bx @
bx A
xN
xO
bx P
bx Q
bx R
bx S
bx T
bx U
bx V
b0 W
bx X
bx Y
b1111101000 #
b0 B
b1 C
b10 D
b11010010110111001110000011101010111010000101110011001000110000101110100 !
b1100101011110000111000001100101011000110111010000101110011001000110000101110100 "
b0 1
b0 2
b0 3
b0 4
b10 5
b0 6
b1 7
b0 8
bx 9
bx :
bx ;
bx <
bx =
bx Z
x+
x*
x)
x.
x-
x,
x/
x0
zM
zL
zK
zJ
zI
zH
0G
0F
1E
$end
#5000
0$
0E
1%
1F
b0 Z
b1 Z
b10 Z
b11 Z
0N
0O
b0 P
b0 Q
b0 T
b1 R
00
0/
0.
0-
0,
0+
0*
0)
#10000
1$
1E
b0 Z
b1 Z
b10 Z
b11 Z
b0 9
#14999
0%
b11 3
0F
#15000
0$
0E
1&
1G
#18000
b1001 ?
b1 '
b1 (
1M
0L
0K
1J
0I
0H
#20000
1$
1E
b1 9
b1 T
#22000
bz '
bz (
zM
zL
zK
zJ
zI
zH
#25000
0$
0E
0&
0G
#28000
b100001 @
b100 '
b1 (
1M
0L
0K
0J
0I
1H
#30000
1$
1E
b10 9
b10 T
1N
10
#32000
bz '
bz (
zM
zL
zK
zJ
zI
zH
#35000
0$
0E
#38000
b1111 A
b1 '
b111 (
1M
1L
1K
1J
0I
0H
#40000
1$
1E
b11 9
b0 T
b1 U
b1 V
b10 R
b11101110 W
b11101110 X
b0 Y
#42000
bz '
bz (
b11 1
zM
zL
zK
zJ
zI
zH
#45000
0$
0E
b0 3
#50000
1$
1E
b100 9
1O
b1 P
b1 Q
b10 U
1/
1.
1+
b11110100 W
b11110100 X
#55000
0$
0E
#60000
1$
1E
b1001 >
b1 4
b101 9
b10 P
b11 U
0+
1*
b11111010 W
b11111010 X
#65000
0$
0E
#70000
1$
1E
b10001 >
b10 4
b110 9
b11 P
b100 U
1+
b0 W
b0 X
#75000
0$
0E
#80000
1$
1E
b11001 >
b11 4
b111 9
b100 P
b1 U
b10 V
0+
0*
1)
b11110001 W
b11101110 X
b11111101 Y
#85000
0$
0E
#90000
1$
1E
b100001 >
b100 4
b1000 9
b1 P
b10 Q
b10 U
0.
1-
1+
0)
b11110111 W
b11110100 X
#95000
0$
0E
#100000
1$
1E
b1010 >
b101 4
b1001 9
b10 P
b11 U
0+
1*
b11111101 W
b11111010 X
#105000
0$
0E
#110000
1$
1E
b10010 >
b110 4
b1010 9
b11 P
b100 U
1+
b11 W
b0 X
#115000
0$
0E
#120000
1$
1E
b11010 >
b111 4
b1011 9
0O
b1 U
b11 V
0/
b11110100 W
b11101110 X
b11111010 Y
#125000
0$
0E
#130000
1$
1E
b1100 9
1O
b1 P
b11 Q
b10 U
1/
1.
0*
b11111010 W
b11110100 X
#135000
0$
0E
#140000
1$
1E
b1011 >
b1000 4
b1101 9
b10 P
b11 U
0+
1*
b0 W
b11111010 X
#145000
0$
0E
#150000
1$
1E
b10011 >
b1001 4
b1110 9
b11 P
b1 U
b100 V
1+
b11110111 W
b11101110 X
b11110111 Y
#155000
0$
0E
#160000
1$
1E
b11011 >
b1010 4
b1111 9
b1 P
b100 Q
b10 U
0.
0-
1,
0*
b11111101 W
b11110100 X
#165000
0$
0E
#170000
1$
1E
b1100 >
b1011 4
b10000 9
b10 P
b11 U
0+
1*
b11 W
b11111010 X
#175000
0$
0E
#180000
1$
1E
b10100 >
b1100 4
b10001 9
0O
b